{
    "posts": [
    {
        "title": "Post de prueba 1",
        "intro_text": "Texto de introducción 1",
        "body_text": "<p>Cuerpo 1</p>",
        "state": "PUBLISHED",
        "date_publish": "2019-04-04",
        "path": "post1",
        "category": "5cc87193e72c951f7de9a7c4",
        "author": "5cc87193e72c951f7de9a7c6"
    },
    {
        "title": "Post de prueba 2",
        "intro_text": "Texto de introducción 2",
        "body_text": "<p>Cuerpo 2</p>",
        "state": "PUBLISHED",
        "date_publish": "2019-04-05",
        "path": "post2",
        "category": "5cc87193e72c951f7de9a7c5",
        "author": "5cc87193e72c951f7de9a7c6"
    }
    ]
}